numeric,text_numeric,text_currency,currency
1,kelen,drɔme kelen,5
2,fila,drɔme fila,10
3,saba,dɔrɔmɛ saba,15
4,naani,drɔme naani,20
5,looru,drɔme looru,25
6,wɔɔrɔ,drɔme wɔɔrɔ,30
7,wolonfila,drɔme wolonfila,35
8,seegi,drɔme seegi,40
9,kɔnɔtɔ,drɔme drɔme naani,45
10,tan,drɔme tan,50
11,tan ni kelen,drɔme tan ni kelen,55
12,tan ni fila,drɔme tan ni fila,60
13,tan ni saba,drɔme tan ni saba,65
14,tan ni naani,drɔme tan ni naani,70
15,tan ni looru,drɔme tan ni looru,75
16,tan ni wɔɔrɔ,drɔme tan ni wɔɔrɔ,80
17,tan ni wolonfila,drɔme tan ni wolonfila,85
18,tan ni seegi,drɔme tan ni seegi,90
19,tan ni kɔnɔtɔ,drɔme tan ni kɔnɔtɔ,95
20,mugan,drɔme mugan,100
21,mugan ni kelen,drɔme mugan ni kelen,105
22,mugan ni fila,drɔme mugan ni fila,110
23,mugan ni saba,drɔme mugan ni saba,115
24,mugan ni naani,drɔme mugan ni naani,120
25,mugan ni looru,drɔme mugan ni looru,125
26,mugan ni wɔɔrɔ,drɔme mugan ni wɔɔrɔ,130
27,mugan ni wolonfila,drɔme mugan ni wolonfila,135
28,mugan ni seegi,drɔme mugan ni seegi,140
29,mugan ni kɔnɔtɔ,drɔme mugan ni kɔnɔtɔ,145
30,bi saba,drɔme bi saba,150
31,bi saba ni kelen,drɔme bi saba ni kelen,155
32,bi saba ni fila,drɔme bi saba ni fila,160
33,bi saba ni saba,drɔme bi saba ni saba,165
34,bi saba ni naani,drɔme bi saba ni naani,170
35,bi saba ni looru,drɔme bi saba ni looru,175
36,bi saba ni wɔɔrɔ,drɔme bi saba ni wɔɔrɔ,180
37,bi saba  ni wolonfila,drɔme bi saba  ni wolonfila,185
38,bi saba ni seegi,drɔme bi saba ni seegi,190
39,bi saba ni kɔnɔtɔ,drɔme bi saba ni kɔnɔtɔ,195
40,bi naani,drɔme bi naani,200
41,bi naani ni kelen,drɔme bi naani ni kelen,205
42,bi naani ni fila,drɔme bi naani ni fila,210
43,bi naani ni saba,drɔme bi naani ni saba,215
44,bi naani ni naani,drɔme bi naani ni naani,220
45,bi naani ni looru,drɔme bi naani ni looru,225
46,bi naani ni wɔɔrɔ,drɔme bi naani ni wɔɔrɔ,230
47,bi naani ni wolonfila,drɔme bi naani ni wolonfila,235
48,bi naani ni seegi,drɔme bi naani ni seegi,240
49,bi naani ni  kɔnɔtɔ,drɔme bi naani ni  kɔnɔtɔ,245
50,bi looru,drɔme bi looru,250
55,bi looru ni looru,drɔme bi looru ni looru,275
60,bi wɔɔrɔ,drɔme bi wɔɔrɔ,300
65,bi wɔɔrɔ ni looru,drɔme bi wɔɔrɔ ni looru,325
66,bi wɔɔrɔ ni wɔɔrɔ,drɔme bi wɔɔrɔ ni wɔɔrɔ,330
70,bi wolonvila,drɔme bi wolonvila,350
75,bi wolonvila ni looru,drɔme bi wolonvila ni looru,375
80,bi seegi,drɔme bi seegi,400
85,bi seegi ni looru,drɔme bi seegi ni looru,425
90,bi kɔnɔtɔ,drɔme bi kɔnɔtɔ,450
95,bi kɔnɔtɔ ni looru,drɔme bi kɔnɔtɔ ni looru,475
100,kɛmɛ,drɔme kɛmɛ,500
105,kɛmɛ ni looru,drɔme kɛmɛ ni looru,525
110,kɛmɛ ni tan,drɔme kɛmɛ ni tan,550
120,kɛmɛ ni mugan,drɔme kɛmɛ ni mugan,600
130,kɛmɛ ni bi saba,drɔme kɛmɛ ni bi saba,650
140,kɛmɛ ni bi naani,drɔme kɛmɛ ni bi naani,700
150,kɛmɛ ni tan,drɔme kɛmɛ ni tan,750
160,kɛmɛ ni bi wɔɔrɔ,drɔme kɛmɛ ni bi wɔɔrɔ,800
180,kɛmɛ ni bi seegi,drɔme kɛmɛ ni bi seegi,900
200,kɛmɛ fila,drɔme kɛmɛ fila,1000
246,kɛmɛ fila ni bi naani ni wɔɔrɔ,#drɔme kɛmɛ fila ni bi naani ni wɔɔrɔ#,1230
300,kɛmɛ saba,drɔme kɛmɛ saba,1500
320,kɛmɛ saba ni mougan,drɔme kɛmɛ saba ni mougan,1600
400,kɛmɛ naani,drɔme kɛmɛ naani,2000
500,kɛmɛ looru,drɔme kɛmɛ looru,2500
600,kɛmɛ wɔɔrɔ,drɔme kɛmɛ wɔɔrɔ,3000
700,kɛmɛ wolonfila,drɔme kɛmɛ wolonfila,3500
800,kɛmɛ seegi,drɔme kɛmɛ seegi,4000
900,kɛmɛ kɔnɔtɔ,drɔme kɛmɛ kɔnɔtɔ,4500
1000,waga kelen,drɔme waga kelen,5000
1200,waga kelen ni kɛmɛ fila,drɔme waga kelen ni kɛmɛ fila,6000
2000,waga fila,drɔme waga fila,10000
3000,waga saba,drɔme waga saba,15000
3246,waga saba ani kɛmɛ fila ni bi naani ni wɔɔrɔ,#drɔme waga saba ni kɛmɛ fila ani bi naani ni wɔɔrɔ#,16230
4000,waga naani,drɔme waga naani,20000
6000,waga wɔɔrɔ,drɔme waga wɔɔrɔ,30000
8000,waga seegi,drɔme waga seegi,40000
10000,waga tan,drɔme waga tan,50000
12000,waga tan ni fila,drɔme waga tan ni fila,60000
14000,waga tan ni naani,drɔme waga tan ni naani,70000
16000,waga tan ni wɔɔrɔ,drɔme waga tan ni wɔɔrɔ,80000
18000,waga tan ni seegi ,drɔme waga tan ni seegi ,90000
20000,waga mugan,drɔme waga mugan,100000
30000,waga bi saba,drɔme waga bi saba,150000
40000,waga bi naani,drɔme waga bi naani,200000
50000,waga bi looru,drɔme waga bi looru,250000
53246,waga bi looru ni saba ani kɛmɛ fila ni bi naani ni wɔɔrɔ,##drɔme waga bi looru ni saba ni kɛmɛ fila ani bi naani ni wɔɔrɔ##,266230
60000,waga bi wɔɔrɔ,drɔme waga bi wɔɔrɔ,300000
70000,waga bi wolonfila,drɔme waga bi wolonfila,350000
80000,waga bi seegi,drɔme waga bi seegi,400000
90000,waga bi kɔnɔtɔ,drɔme waga bi kɔnɔtɔ,450000
100000,waga kɛmɛ,drɔme waga kɛmɛ,500000
