[
  {
    "id": "ka",
    "value": 61373,
    "word": "ka"
  },
  {
    "id": "la",
    "value": 44557,
    "word": "la"
  },
  {
    "id": "ye",
    "value": 35418,
    "word": "ye"
  },
  {
    "id": "a",
    "value": 35251,
    "word": "a"
  },
  {
    "id": "be",
    "value": 26384,
    "word": "be"
  },
  {
    "id": "an",
    "value": 24724,
    "word": "an"
  },
  {
    "id": "o",
    "value": 20328,
    "word": "o"
  },
  {
    "id": "le",
    "value": 16941,
    "word": "le"
  },
  {
    "id": "kɛ",
    "value": 16869,
    "word": "kɛ"
  },
  {
    "id": "ko",
    "value": 16722,
    "word": "ko"
  },
  {
    "id": "na",
    "value": 15004,
    "word": "na"
  },
  {
    "id": "u",
    "value": 14221,
    "word": "u"
  },
  {
    "id": "se",
    "value": 12981,
    "word": "se"
  },
  {
    "id": "lo",
    "value": 12834,
    "word": "lo"
  },
  {
    "id": "jehova",
    "value": 12766,
    "word": "jehova"
  },
  {
    "id": "tun",
    "value": 12096,
    "word": "tun"
  },
  {
    "id": "ani",
    "value": 12010,
    "word": "ani"
  },
  {
    "id": "min",
    "value": 11959,
    "word": "min"
  },
  {
    "id": "i",
    "value": 11596,
    "word": "i"
  },
  {
    "id": "ni",
    "value": 10719,
    "word": "ni"
  },
  {
    "id": "ma",
    "value": 9325,
    "word": "ma"
  },
  {
    "id": "b’a",
    "value": 8644,
    "word": "b’a"
  },
  {
    "id": "bena",
    "value": 8478,
    "word": "bena"
  },
  {
    "id": "koo",
    "value": 8370,
    "word": "koo"
  },
  {
    "id": "k’a",
    "value": 8036,
    "word": "k’a"
  },
  {
    "id": "n’",
    "value": 7900,
    "word": "n’"
  },
  {
    "id": "ne",
    "value": 7851,
    "word": "ne"
  },
  {
    "id": "fɛ",
    "value": 7500,
    "word": "fɛ"
  },
  {
    "id": "dɔ",
    "value": 6894,
    "word": "dɔ"
  },
  {
    "id": "kan",
    "value": 6705,
    "word": "kan"
  },
  {
    "id": "sɔrɔ",
    "value": 6493,
    "word": "sɔrɔ"
  },
  {
    "id": "minw",
    "value": 6481,
    "word": "minw"
  },
  {
    "id": "cogo",
    "value": 6412,
    "word": "cogo"
  },
  {
    "id": "y’a",
    "value": 6376,
    "word": "y’a"
  },
  {
    "id": "di",
    "value": 6252,
    "word": "di"
  },
  {
    "id": "je",
    "value": 6227,
    "word": "je"
  },
  {
    "id": "to",
    "value": 6013,
    "word": "to"
  },
  {
    "id": "bɛɛ",
    "value": 5362,
    "word": "bɛɛ"
  },
  {
    "id": "dɛmɛ",
    "value": 5228,
    "word": "dɛmɛ"
  },
  {
    "id": "ce",
    "value": 5180,
    "word": "ce"
  },
  {
    "id": "kɔnɔ",
    "value": 5158,
    "word": "kɔnɔ"
  },
  {
    "id": "en",
    "value": 5005,
    "word": "en"
  },
  {
    "id": "n’a",
    "value": 4852,
    "word": "n’a"
  },
  {
    "id": "mun",
    "value": 4546,
    "word": "mun"
  },
  {
    "id": "mɔgɔ",
    "value": 4461,
    "word": "mɔgɔ"
  },
  {
    "id": "tu",
    "value": 4451,
    "word": "tu"
  },
  {
    "id": "fɔ",
    "value": 4427,
    "word": "fɔ"
  },
  {
    "id": "ta",
    "value": 4341,
    "word": "ta"
  },
  {
    "id": "tɛ",
    "value": 4068,
    "word": "tɛ"
  },
  {
    "id": "nka",
    "value": 4020,
    "word": "nka"
  },
  {
    "id": "ɲi",
    "value": 4003,
    "word": "ɲi"
  },
  {
    "id": "tuma",
    "value": 3985,
    "word": "tuma"
  },
  {
    "id": "yezu",
    "value": 3873,
    "word": "yezu"
  },
  {
    "id": "yɛrɛ",
    "value": 3866,
    "word": "yɛrɛ"
  },
  {
    "id": "dɔw",
    "value": 3647,
    "word": "dɔw"
  },
  {
    "id": "kalan",
    "value": 3645,
    "word": "kalan"
  },
  {
    "id": "son",
    "value": 3641,
    "word": "son"
  },
  {
    "id": "walisa",
    "value": 3562,
    "word": "walisa"
  },
  {
    "id": "fana",
    "value": 3558,
    "word": "fana"
  },
  {
    "id": "k’an",
    "value": 3453,
    "word": "k’an"
  },
  {
    "id": "ala",
    "value": 3442,
    "word": "ala"
  },
  {
    "id": "n’an",
    "value": 3298,
    "word": "n’an"
  },
  {
    "id": "yira",
    "value": 3170,
    "word": "yira"
  },
  {
    "id": "lɔn",
    "value": 3046,
    "word": "lɔn"
  },
  {
    "id": "sa",
    "value": 3013,
    "word": "sa"
  },
  {
    "id": "dakun",
    "value": 2978,
    "word": "dakun"
  },
  {
    "id": "baara",
    "value": 2935,
    "word": "baara"
  },
  {
    "id": "b’an",
    "value": 2881,
    "word": "b’an"
  },
  {
    "id": "k’o",
    "value": 2814,
    "word": "k’o"
  },
  {
    "id": "caaman",
    "value": 2752,
    "word": "caaman"
  },
  {
    "id": "si",
    "value": 2727,
    "word": "si"
  },
  {
    "id": "k’u",
    "value": 2707,
    "word": "k’u"
  },
  {
    "id": "lajɛ",
    "value": 2706,
    "word": "lajɛ"
  },
  {
    "id": "kosɔbɛ",
    "value": 2684,
    "word": "kosɔbɛ"
  },
  {
    "id": "bibulu",
    "value": 2569,
    "word": "bibulu"
  },
  {
    "id": "kelen",
    "value": 2488,
    "word": "kelen"
  },
  {
    "id": "saan",
    "value": 2472,
    "word": "saan"
  },
  {
    "id": "miiri",
    "value": 2430,
    "word": "miiri"
  },
  {
    "id": "wagati",
    "value": 2290,
    "word": "wagati"
  },
  {
    "id": "kɔ",
    "value": 2285,
    "word": "kɔ"
  },
  {
    "id": "ton",
    "value": 2235,
    "word": "ton"
  },
  {
    "id": "kuma",
    "value": 2228,
    "word": "kuma"
  },
  {
    "id": "kɛra",
    "value": 2138,
    "word": "kɛra"
  },
  {
    "id": "hakili",
    "value": 2125,
    "word": "hakili"
  },
  {
    "id": "mɔgɔw",
    "value": 2104,
    "word": "mɔgɔw"
  },
  {
    "id": "kama",
    "value": 2089,
    "word": "kama"
  },
  {
    "id": "te",
    "value": 2012,
    "word": "te"
  },
  {
    "id": "ɲɔgɔn",
    "value": 1998,
    "word": "ɲɔgɔn"
  },
  {
    "id": "ale",
    "value": 1963,
    "word": "ale"
  },
  {
    "id": "nin",
    "value": 1953,
    "word": "nin"
  },
  {
    "id": "wala",
    "value": 1945,
    "word": "wala"
  },
  {
    "id": "barokun",
    "value": 1870,
    "word": "barokun"
  },
  {
    "id": "sabu",
    "value": 1784,
    "word": "sabu"
  },
  {
    "id": "ɲini",
    "value": 1760,
    "word": "ɲini"
  },
  {
    "id": "kanu",
    "value": 1704,
    "word": "kanu"
  },
  {
    "id": "kafo",
    "value": 1662,
    "word": "kafo"
  },
  {
    "id": "aw",
    "value": 1620,
    "word": "aw"
  },
  {
    "id": "tɔɔw",
    "value": 1617,
    "word": "tɔɔw"
  },
  {
    "id": "n’i",
    "value": 1597,
    "word": "n’i"
  },
  {
    "id": "bɔ",
    "value": 1593,
    "word": "bɔ"
  }
]
