a,858300ed
á,858300ed
à,4b335390
aa,2a6e55be
áa,2a6e55be
abada,7b8612bc
ábada,7b8612bc
adamaden,4e3ae9f6
ádamaden,4e3ae9f6
Ala,2f2b563a
alamani,4e633099
álamani,4e633099
alamisa,0d8ef02e
àlamisa,0d8ef02e
ale,866b4459
àle,866b4459
alugu,cb144467
álugu,cb144467
an,78b03f56
án,78b03f56
ani,bd8c4982
àni,bd8c4982
anugu,1104a18f
araba,5b659d3c
áraba,5b659d3c
awa,5835a646
awirilikalo,83390481
ayiwa,5835a646
àyiwa,5835a646
ba,c0ece6e9
bá,6fa4318f
bà,1ea34647
baa,1ea34647
baana,218a2b52
báana,218a2b52
baanabaana,63491b7b
bàanabaana,63491b7b
baara,641be860
báara,641be860
baarakɛla,7ac72134
bádema,d7fba7c7
baden,9f13b832
báden,9f13b832
bádima,d7fba7c7
baga,ed6241f2
bága,ed6241f2
bàga,79f8a88f
bagabaga,769d0571
bàgabaga,3a4455c0
bagan,898d13f0
bágan,898d13f0
bakɔrɔnin,2c6f7e27
bala,1a79e1f5
bála,1a79e1f5
bàla,8ce8318a
bálema,d7fba7c7
bali,cfb5b99d
bàli,cfb5b99d
balibali,c2e3dbb2
bálibali,c2e3dbb2
balima,d7fba7c7
bálima,d7fba7c7
balo,08de3188
bàlo,08de3188
balɔn,26e3495a
bamba,e77ed67b
bamuso,2575ebc4
bámuso,2575ebc4
ban,2aefb653
bán,2aefb653
bàn,0a2f6f3a
bana,774fb6c0
bàna,774fb6c0
bananku,33e7d632
bànanku,33e7d632
banba -,e77ed67b
banbagatɔ,62a11c18
bànbagatɔ,62a11c18
bange,d0a1be96
bànge,d0a1be96
banni,637a0af4
bánni,637a0af4
bara,5cd2723a
bàra,5cd2723a
baraji,dae303db
bàraji,dae303db
barajuru,25a850ac
bàrajùru,25a850ac
barakun,b81845e1
bàrakun,b81845e1
baramuso,c0daa850
báramuso,c0daa850
baranda,a2039e05
bari,996398ef
bàri,996398ef
barika,8e2a4cba
bárika,8e2a4cba
baro,4bd33e68
bàro,4bd33e68
basa,3f1e2010
bása,3f1e2010
basi,b16f7398
bási,b16f7398
bato,f3db4fd6
be,79b6b148
bé,79b6b148
belebele,974a6a72
bèlebele,974a6a72
beleke,4d675e62
bèleke,4d675e62
ben,317a71bd
bèn,317a71bd
benkalikɛla,fb7be3e4
bènkalikɛla,fb7be3e4
bere,c4527ee0
bére,c4527ee0
bese,641dd874
bèse,641dd874
bɛ,79b6b148
bɛɛ,558c78f5
bɛ́ɛ,558c78f5
bɛgan,898d13f0
bɛmacɛ,ef260eb3
bɛ́macɛ,ef260eb3
bɛn,8f4b973b
bɛ̀n,8f4b973b
bɛna,94a059df
bi,ddbee021
bí,ddbee021
bì,865d8d23
biɛn,26331a58
bìɛn,26331a58
bila,030350d8
bilasira,418086a9
bin,bac62c55
binkɛnɛ,7f6f6c5d
binkɛnɛlaman,7f6f6c5d
birifani,b16a0200
bisi,c15a1bb0
bísi,c15a1bb0
bisimila,00b8809f
bìsimila,00b8809f
biyɛ,26331a58
bla,030350d8
blà,030350d8
blamuso,afe1002f
blámuso,afe1002f
blancɛ,c479d19f
bláncɛ,c479d19f
blasira,418086a9
blàsira,418086a9
bo,b5a8f9d7
bò,b5a8f9d7
boati,9793b4b9
bóati,9793b4b9
bobara,1ec8a8c7
bobo,fa843016
boda,c599dcb5
bòda,c599dcb5
boli,57ac817f
bolo,fe0bb650
bólo,fe0bb650
boloden,cd334d57
bóloden,cd334d57
bolodenoli,21cb1308
bólodenoli,21cb1308
bolofara,b94d09ce
bólofara,b94d09ce
bolokan,a65967b9
bolokolon,56dac154
bólokolon,56dac154
bolokɔniden,cd334d57
bolokumanden,cd334d57
bolokuru,25134a5a
bólokuru,25134a5a
bololabaarakela,021e4f74
bólolabaarakela,021e4f74
bolomafara,bca39098
bólomafara,bca39098
bon,a716f46e
bón,a716f46e
bòn,7e6e8c46
bonbon,43d9d8ba
bonbon kun,43d9d8ba
bonya,a7a87948
bònya,a7a87948
bori,57ac817f
bòri,57ac817f
boso,e2d0d944
bóso,e2d0d944
bɔ,28dbac31
bɔ̀,28dbac31
bɔgɔ,c9cedb2d
bɔ̀gɔ,c9cedb2d
bɔn,66dbe598
bɔ̀n,66dbe598
bɔnɛ,ecb9dd0d
bɔ̀nɛ,ecb9dd0d
bɔ̀ɔrɔ,ffcf4d72
bɔrɔ,ffcf4d72
bɔsi,977569cd
bɔ̀si,977569cd
bɔyɔrɔ,4b3af06e
bɔ́yɔrɔ,4b3af06e
bu,bba92b83
bú,bba92b83
bugɔ,1e3dc66e
bùgɔ,1e3dc66e
bugu,27814a2e
bùgu,27814a2e
bugun,ed1ad363
búgun,ed1ad363
bùgun,c9860846
buguri,f6b97a49
bùguri,f6b97a49
bula,40f2f72e
búla,40f2f72e
buru,9e1ad0d2
bùru,9e1ad0d2
byɛ,8d1c5d70
byɛ̀,8d1c5d70
byɛn,4308e29c
byɛ́n,26331a58
ca,9111b78c
cá,9111b78c
caman,465f03d9
cáman,465f03d9
can,e88bcfe7
cɛ,4ff831b0
cɛ́,4ff831b0
cɛ̀,0f9d6d80
cɛɛ,0f9d6d80
cɛkɛ,61a17484
cɛman,50d5b4f8
cɛn,67575064
cɛ́n,67575064
cɛ̀n,67575064
cɛncɛn,09af5bdc
cɛ̀ncɛn,09af5bdc
cɛsiri,340fc6b7
ci,d05cf5d0
cí,d05cf5d0
ciden,44b36a96
cíden,44b36a96
cíɩ́n,c470ec22
cikan,0b0d3cdb
cíkan,0b0d3cdb
cin,962635be
-cin -kin,c470ec22
citumu,61ddf090
cogi,1f2aa89d
cogo,ca708a75
cógo,ca708a75
cogoya,b5a43ce0
cógoya,b5a43ce0
cɔ,1fd792b9
cɔ̀,1fd792b9
cɔri,5490ea24
cɔ̀ri,5490ea24
cɔrɔ,ab23d400
cɔ̀rɔ,ab23d400
cun,5da6a4ad
cùn,5da6a4ad
da,a28fc8cf
dá,a28fc8cf
dà,bce25ae6
daamu,72c44a24
dàamu,72c44a24
daan,a2438689
daari,0660f549
dáari,0660f549
daba,b695041a
dàba,b695041a
dabi,b492ab38
dabla,9d4fb7d3
dábla,9d4fb7d3
dabɔ,c0c2f891
dábɔ,c0c2f891
dafa,c16969fc
dáfa,c16969fc
dafen,1747c30a
dáfen,1747c30a
dafuruku,bbb627ca
daga,7cfebc98
dága,7cfebc98
dàga,43e3209f
dagbana,47b460c6
dagbolo,1612a367
dágbolo,1612a367
daje,aae9c451
dáje,aae9c451
dakan,1f3e1384
dákan,1f3e1384
dakodɛgɛ,5776034a
dalabɔ,f9a6738c
dama,4a77667f
dàma,4a77667f
damadama,ba4d36b7
dámadama,ba4d36b7
daminɛ,432bdee1
dáminɛ,432bdee1
dan,35918b9a
dán,35918b9a
dàn,a2438689
danbaga,b43c90a0
dánbaga,b43c90a0
danbe,068b401e
dànbe,068b401e
dancɛ,21d10792
dàncɛ,21d10792
danfɛn,1747c30a
dangatɔ,424e7807
dansigi,e34fa60a
dánsigi,e34fa60a
darabɔ,f9a6738c
daraja,9bea3708
dáraja,9bea3708
daraka,0cf1716d
dáraka,0cf1716d
darasi,5382d767
dárasi,5382d767
datugu,efcbc71c
dátugu,efcbc71c
dawula,6618b605
dáwula,6618b605
dayɛlɛ,7c5952af
dáyɛlɛ,7c5952af
degi,efc6dc2b
dègi,efc6dc2b
degu,41353303
dègu,41353303
deli,0660f549
dèli,28e1520c
den,47d4a225
dén,47d4a225
denkunli,4133b0c9
dénkunli,4133b0c9
derege,7bbc9030
dereke,7bbc9030
dèreke,7bbc9030
desanburukalo,e00440d5
dewu,f210bda1
déwu,f210bda1
dɛ,e4f8b63b
dɛbɛ,c3ab36d4
dɛ̀bɛ,c3ab36d4
dɛgɛ,00cb79cd
dɛ̀gɛ,00cb79cd
dɛmɛ,c3e24318
dɛ̀mɛ,c3e24318
dɛsɛ,e774cae2
dɛ̀sɛ,e774cae2
dɛsɛbagatɔ,5fe4d179
dɛ́sɛbagatɔ,5fe4d179
di,569f1dec
dí,569f1dec
dì,4591d7d6
diá,5e3bf49b
dián,5e3bf49b
dìbi,a6b9f9bf
dìgamu,a41f1fab
digi,8410ba20
dígi,8410ba20
dilan,5e3bf49b
dilán,5e3bf49b
dìmi,7661283d
dinɛ,04e3a328
dínɛ,04e3a328
dìnga,6520e711
disi,1c3da833
dísi,1c3da833
diya,3243407e
díya,3243407e
dogo,76be5681
dògo,76be5681
domu,21060eb5
dómu,21060eb5
don,25bbc806
dòn,25bbc806
dondoli,58804a1b
dondon,73be4450
dòndon,73be4450
donfani,0cc22c65
dònfani,0cc22c65
doni,1f8fd9ee
dòni,1f8fd9ee
donso,d7fa17d2
dònso,d7fa17d2
doso,d7fa17d2
dɔ,3651c4c5
dɔ́,3651c4c5
dɔbɔli,5ac9d6b3
dɔ́bɔli,5ac9d6b3
dɔgɔ,c5bde12f
dɔ́gɔ,c5bde12f
dɔgɔya,f44d23fe
dɔ̀gɔya,f44d23fe
dɔlɔ,d2a13001
dɔ̀lɔ,d2a13001
dɔn,016ae030
dɔ̀n,016ae030
dɔnkili,2c737555
dɔ̀nkili,2c737555
dɔnkilibaga,81115462
dɔɔnin,52244857
dɔ́ɔnin,52244857
dɔrɔmɛ,521ab621
dɔ̀rɔmɛ,521ab621
dɔrɔn,2f0becbf
dɔ̀rɔn,2f0becbf
dugalen,cbdb4f8a
dùgalen,cbdb4f8a
dugawu,b6ace0e7
dùgawu,b6ace0e7
dugu,3d38814c
dùgu,3d38814c
dugukolo,c12b0544
dugulen,c1101d55
dùgulen,c1101d55
dugulenya,6927f2e4
dùgulenya,6927f2e4
dulon,ae6eca6e
dunden,0c594444
dúnden,0c594444
dundun,ff4c9e8d
dùndun,ff4c9e8d
dungɔ,923b44e2
dùngɔ,923b44e2
duniɲa,a9afa5f4
dúniɲa,a9afa5f4
dúnuya,a9afa5f4
dusu,b9818d4a
dusuma,2114d01b
dùsuma,2114d01b
ée,aadb69c7
èkɔliso,6d5f94a5
fa,0d867c27
fá,0d867c27
fà,f0185fcf
faa,f0185fcf
fáálbaliya,d658b58f
faama,56d797c3
fáama,56d797c3
faamu,112e192a
fàamu,112e192a
faantan,948c5778
fàantan,948c5778
faasi,bcb0d438
fáasi,bcb0d438
facɛ,f0185fcf
faden,b64780ea
faga,9a9d0fcf
falbaliya,d658b58f
fali,22007cc0
fàli,22007cc0
fama,72605769
fàma,72605769
famu,112e192a
fan,31ef073b
fán,31ef073b
fàn,bdf9809d
fana,205e61a2
fána,205e61a2
fanga,2397b277
fànga,2397b277
fani,ee15b471
fàni,ee15b471
fanikaranla,e0ddf861
faniya,4c7447b9
fàniya,4c7447b9
fantanya,32adeaec
fara,6dd569c5
fára,6dd569c5
fàra,37fde145
farafara,fc5783bc
faran,8b03bcf2
faranfaran,fc5783bc
faranfasi,fc27050b
fáranfasi,fc27050b
farati,b01c07e6
fari,c43b534b
fàri,c43b534b
farigban,3683635c
fàrigban,3683635c
farin,79a70ea8
farni,0f718296
fasa,455b657f
fàsa,455b657f
fasa juru,455b657f
faso,1d5ef1a6
fàso,1d5ef1a6
fatɔ,13f91083
fàtɔ,13f91083
fatu,3c713dda
feburukalo,2c2bb44d
feere,5c0880e5
fèere,5c0880e5
fen,2849e6a1
fèn,2849e6a1
feretani,51a5ebef
fewu,3dcaee88
féwu,3dcaee88
fɛ,819b5f2f
fɛ̀,819b5f2f
fɛɛn,2849e6a1
fɛɛrɛ,c3128f4f
fɛ́ɛrɛ,c3128f4f
fɛ̀ɛrɛ,062ff567
fɛɛrɛbɔ,03cb76cc
fɛ́ɛrɛbɔ,03cb76cc
fɛfɛ,c0b6f691
fɛn,2849e6a1
fɛngɛ,d04dcc41
fɛ́ngɛ,d04dcc41
fɛrɛ,14ee4fcd
fɛ́rɛ,14ee4fcd
fɛsɛfɛsɛ,d3d16055
fɛ̀sɛfɛsɛ,d3d16055
fiew,899ecb36
fìew,899ecb36
fifa,ab2e839c
fìfa,ab2e839c
fifanan,189e3ff3
fìfanan,189e3ff3
fila,e10369f0
filà,e10369f0
file,855ad6fa
fìle,855ad6fa
filɛ,3c1508d8
filɛ́,3c1508d8
fili,4a05a172
fin,bb090f45
fìn,bb090f45
finɛtiri,8ab4a661
fìnɛtiri,8ab4a661
finfin,c8cd6ee6
fìnfin,c8cd6ee6
finman,bb090f45
finyɛ,83ed7666
fíɲɛ,83ed7666
fìɲɛ,aff484a0
fìri,4a05a172
firinfirin,3631bd88
fisa,1347a6ef
fitini,e6d86bd9
fítini,e6d86bd9
fitiri,d7375856
fìtiri,d7375856
fiyɛntɔ,bd4c4e18
fla,e10369f0
flá,be4b6b66
flaburu,bac73577
fláburu,bac73577
flakɛ,8b790aa6
flákɛ,8b790aa6
flan,cc5cafaa
flán,cc5cafaa
flancɛ,3ad44e64
flàncɛ,3ad44e64
flanin,87135af7
flànin,87135af7
flannan,23f43a3e
flánnan,23f43a3e
flen,6966eef1
flèn,6966eef1
flɛ,3c1508d8
flɔ,f800aeb6
fo,f212a9d1
fó,6084b28d
fò,f212a9d1
fòli,0bbe010d
foro,334bf3d2
fòro,334bf3d2
foronto,b5379695
fòronto,b5379695
foyi,c63ac40d
fòyi,c63ac40d
fɔ,6084b28d
fɔ̀,72a634cc
fɔlɔ,922fc70e
fɔ́lɔ,922fc70e
fɔlɔfɔlɔ,99b2ca8a
fɔ́lɔfɔlɔ,99b2ca8a
fɔn,72a634cc
fɔnɔ,23537c84
fɔ́nɔ,23537c84
fɔnyɔ,b5175b74
fɔɲɔ,83ed7666
fɔ́ɲɔ,b5175b74
fɔɔ,50d7a73d
fɔɔnɔn,23537c84
fɔrɔ,b7f752ae
fɔ́rɔ,b7f752ae
fɔrɔgɔ,be5a92be
fɔ̀rɔgɔ,be5a92be
fu,caa9da3e
fú,caa9da3e
fù,cce46742
fugula,d1900238
fúgula,d1900238
fule,d31ea690
fúle,d31ea690
fulufɛlɛ,d43b650e
fúlufɛlɛ,d43b650e
funteni,d597d9be
fùnteni,d597d9be
funu,d6cd2c58
fùnu,d6cd2c58
fura,a1bda532
furu,d8050de8
fúru,d8050de8
fùru,d9471ec6
fururu,e8d7f0c2
fúruru,e8d7f0c2
fyere,5c0880e5
gala,2e31c937
gàla,2e31c937
gama,5c3ddc81
gangali,fc0f1d31
gàngali,fc0f1d31
gangan,80f74c1b
garange,ec337853
gba,c50dcc3d
gbà,c50dcc3d
gbaka,3f7b5cd0
gbáka,3f7b5cd0
gban,a37ee3d3
gbán,a37ee3d3
gbàn,237248f6
gbana,ab3df45c
gbána,ab3df45c
gbangalan,c04be331
gbàngalan,c04be331
gbanin,237248f6
gbankan,5a5cb991
gbànkan,5a5cb991
gbansan,e412889a
gbánsan,e412889a
gbànsan,98fdb08c
gbara,26b6faf0
gbasi,ad55bbd8
gbàsi,ad55bbd8
gbatigi,74912f48
gbàtigi,74912f48
gbatigicɛ,74912f48
gbɛ,c29856a9
gbɛ̀,c29856a9
gbɛlɛ,f24a88fb
gbɛ̀lɛ,f24a88fb
gbɛman,c29856a9
gbɛn,d42f4ddb
gbɛ́n,d42f4ddb
gbɛrɛ,6e22964c
gbɛ́rɛ,6e22964c
gbɛ̀rɛ,26b6faf0
gbɛsɛ,8aec9821
gbɛ́sɛ,8aec9821
gbili,f8148bee
gbíli,f8148bee
gbisi,ad55bbd8
gbo,dfd7abf2
gbó,dfd7abf2
gbolo,4b6a020d
gbòlo,4b6a020d
gbongon,b0564976
gbóngon,b0564976
gbosi,ad55bbd8
gboya,2a96bca6
gbòya,2a96bca6
giringirin,f7bcfcf9
gíringirin,f7bcfcf9
gɔrɔntɔ,6f7669d7
gɔ̀rɔntɔ,6f7669d7
gɔyɔ,4b8bd2b7
gundo,12877e53
gwɛlɛ,f24a88fb
gwɛrɛ,b01dcfca
gwili,f8148bee
haali,a20a76b0
háali,a20a76b0
hakɛ,c58f0dad
hàkɛ,c58f0dad
hakɛya,61bf81aa
hakili,32c67406
hakiri,32c67406
hákiri,32c67406
hali,08d65c4e
háli,08d65c4e
hami,8bf5f250
hámi,8bf5f250
haminako,3a6b69ae
haminanko,3a6b69ae
hàminanko,3a6b69ae
han,b816e78d
hàn,b816e78d
hɛrɛ,f2f22776
hɛ́rɛ,f2f22776
hinɛ,5fcdab51
hínɛ,5fcdab51
hɔn,b816e78d
hɔrɔn,3e831206
hɔ́rɔn,3e831206
i,5823eaee
í,5823eaee
ile,439daa66
íle,439daa66
ja,4a6a823e
jà,4a6a823e
jaa,c18666a2
jàa,c18666a2
jaabi,54730c61
jáabi,54730c61
jàabi,eacca7ff
jaateka,2492e0b7
jàateka,2492e0b7
jaati,9b384a1b
jáati,9b384a1b
jaatika,2492e0b7
jaba,597b503d
jàba,597b503d
jaga,ab8e9858
jága,ab8e9858
jago,da398573
jàgo,da398573
jagokɛla,00510699
jàgokɛla,00510699
jáka,ab8e9858
jakuma,b3c6b21d
jàkuma,b3c6b21d
jalan,0b7ba033
jàlan,0b7ba033
jama,0e4d62f9
jàma,0e4d62f9
jamana,b2cbcc2b
jàmana,b2cbcc2b
jamanin,0d625b33
jamu,62e95ff4
jàmu,62e95ff4
jan,c959f474
ján,c959f474
janfa,d967cbcc
janfan,d967cbcc
jànfan,d967cbcc
jango,d56dcac3
jàngo,d56dcac3
janko,d56dcac3
janmanjan,5da03a11
jànmanjan,5da03a11
janto,79a3faba
janya,1bfe45f9
jara,e45c741c
jàra,e45c741c
jarabi,aaac348b
jàrabi,aaac348b
jaraki,f8bc263e
jasa,ec49d55a
jása,ec49d55a
jate,b3ae018b
jàte,b3ae018b
jatemina,3273fd0a
jàtemina,3273fd0a
jateminɛ,3273fd0a
jati,b3ae018b
jatigi,defb9f49
jàtigi,defb9f49
je,b337652e
jé,b337652e
jee,f087be25
jée,f087be25
jeli,895d7559
jèli,895d7559
jende,224bd239
jénde,224bd239
jeni,7514c780
jèni,7514c780
jesedan,0d4aec56
jèsedan,0d4aec56
jɛ,335b96f2
jɛ̀,335b96f2
jɛgɛ,2a484e53
jɛ́gɛ,2a484e53
jɛkafɔ,d923144b
jɛ̀kafɔ,d923144b
ji,c5fb9b47
jí,c5fb9b47
jigi,5a34738a
jìgi,5a34738a
jigijigi,22076f71
jìgijigi,22076f71
jiginɛ,9d587204
jigninso,8d369d0e
jìgninso,8d369d0e
jija,60782e7f
jìja,60782e7f
jiminlɔgɔ,16cdb081
jiminnɔgɔ,16cdb081
jimínnɔgɔ,16cdb081
jitigi,305d9ef4
jítigi,305d9ef4
jo,467354b6
jó,467354b6
jò,eafa7ee1
jogo,adaf0349
joli,8a22b254
jóli,8a22b254
jòli,32be0c6a
jólida,8a22b254
jòona,4cab18cb
jɔ,39cf4d83
jɔ́,39cf4d83
jɔn,21df21b5
jɔ́n,21df21b5
jɔ̀n,f9b82815
jɔrɔ,331f401a
jɔsi,4dfe4014
jɔ̀si,4dfe4014
ju,f44f7b4d
jù,f44f7b4d
jufa,b2ea9214
júfa,b2ea9214
jugu,c264e9b7
júgu,c264e9b7
jugunin,73b338ba
juguya,3e6cf89f
jukɔrɔ,f8de7134
jùkɔrɔ,f8de7134
jula,9c0e65a8
juma,4f122e78
jùma,4f122e78
juman,1a78f590
júman,1a78f590
jumɛn,1a78f590
juru,2606e7a6
jùru,2606e7a6
jusu,b9818d4a
jùsu,be5394f1
jusuma,2114d01b
ka,86234f0d
ká,86234f0d
kà,5e90bb39
kaan,8b82575a
kaba,b860de96
kába,b860de96
kàba,42a8eb67
kàbà,f4d51e4c
kabafin,66e591dc
kàbafin,66e591dc
kabako,e5ef9c2f
kábako,e5ef9c2f
kabakoya,9c0cfe27
kábakoya,9c0cfe27
kabakuru,dfa3e4f3
kabakurun,dfa3e4f3
kábakurun,dfa3e4f3
kabini,bfb88ae7
kábini,bfb88ae7
kafefeereyɔrɔ,9b4a3bfe
kafoli,a4a89dc2
kàfoli,a4a89dc2
kala,d3c33841
kála,d3c33841
kàla,ad51da63
kalaka,5c713772
kálaka,5c713772
kalan,4158f29c
kàlan,4158f29c
kalanden,0bd3dc94
kàlanden,0bd3dc94
kalansen,03b15cd8
kàlansen,03b15cd8
kalaya,6340fe41
kálaya,6340fe41
kalo,85d50fb5
kàlo,85d50fb5
kama,664aef1f
káma,664aef1f
kàma,5c3ddc81
kaman,5c3ddc81
kami,c3079ff1
kàmi,c3079ff1
kan,8b82575a
kán,8b82575a
kàn,bb9cbf56
kana,6646a442
kána,6646a442
kanbele,743947e5
kánbele,743947e5
kani,98399f0f
kanimɛ,576f483b
kanimɛcɛ,576f483b
kanimɛmuso,576f483b
kanma,664aef1f
kánma,664aef1f
kannatigɛ,7f801d5e
kánnatigɛ,7f801d5e
kantigiya,cb1deef6
kanu,98399f0f
kànu,98399f0f
kanya,2d7a22cf
kánya,2d7a22cf
káɲa,d9c67308
kára,620d7fb8
karamɔgɔ,cf02b4a2
kàramɔgɔ,cf02b4a2
karan,4158f29c
káran,620d7fb8
karanni,4dbdee82
kari,381205e6
kári,381205e6
karisa,abffb14b
kàrisa,abffb14b
kasa,5c46c861
kása,5c46c861
kasanba,d436062d
kàsanba,d436062d
kasara,d17b1d94
kàsara,d17b1d94
kasi,560e8e3e
kaso,7eebc738
kasó,7eebc738
kaya,dbe7ceb7
kayá,dbe7ceb7
kelen,2859e7fb
kélen,2859e7fb
kende,031cdccc
kènde,031cdccc
kɛ,161afa56
kɛ́,161afa56
kɛ̀,69b84eab
kɛkun,3a2c4c7b
kɛ̀kun,3a2c4c7b
kɛlɛ,82d44553
kɛ̀lɛ,82d44553
kɛmɛ,86e36bc1
kɛ̀mɛ,86e36bc1
kɛnɛ,1cae0687
kɛ́nɛ,1cae0687
kɛnyɛ,2d7a22cf
kɛ́ɲɛ,d9c67308
kɛrefɛ,8c84200c
kɛ̀refɛ̀,8c84200c
kɛrɛkɛ,788d69db
kɛwale,d76b07ff
kibariya,a994a394
kìbaro,a994a394
kibaruya,a994a394
kili,dbe7ceb7
kin,962635be
kìn,962635be
kini,465adbce
kíni,465adbce
kinin,465adbce
kiri,8bd664eb
kíri,8bd664eb
kirikiri,4d34e86e
kírikiri,4d34e86e
kisa,9acff2de
kísa,9acff2de
kisɛ,2102c831
kìsɛ,2102c831
kisi,ca78e088
kísi,ca78e088
kiyama,7f153ee4
kíyama,7f153ee4
ko,572169a1
kó,3f33ef44
kò,2def0334
kofɔ,29c77acd
kófɔ,29c77acd
kogo,39757883
kógo,39757883
kogoro,dd7d05c8
kojugu,fdbb60f3
kójugu,fdbb60f3
kokɔrɔ,9baec2cb
kókɔrɔ,9baec2cb
kolo,36e46cd8
kólo,36e46cd8
kolojalan,52b67f68
kolon,2fd50397
kòlon,2fd50397
kolonkala,da0abe2d
kòlonkala,da0abe2d
kolɔnbaga,6fabc855
kólɔnbaga,6fabc855
kongo,074d0dc7
kóngo,074d0dc7
kónya,da464541
konyuman,6dc5421a
koɲuman,6dc5421a
kóɲuman,6dc5421a
koo,7cb3c937
koori,4c98289f
kòori,4c98289f
kooro,dd7d05c8
korokoro,563aa0ec
kórokoro,563aa0ec
kòrɔfɔ,97066625
kò̀rɔfɔ,97066625
kosɔbɛ,026cc5a8
kósɔbɛ,026cc5a8
kosɔn,5317890f
kósɔn,5317890f
kɔ,0bc83dcc
kɔ́,0bc83dcc
kɔ̀,3cebed16
kɔbɔ,22005c75
kɔ̀bɔ,22005c75
kɔfɛ,0098ed20
kɔ́fɛ,0098ed20
kɔgɔ,6dbeaee3
kɔ́gɔ,d8d1ab33
kɔ̀gɔ,6dbeaee3
kɔgɔji,cd3ff9d6
kɔ̀gɔji,cd3ff9d6
kɔkɔ,d8d1ab33
kɔkɔti,5b69e780
kɔ̀kɔti,5b69e780
kɔli,06ad0d00
kɔ̀li,06ad0d00
kɔlɔn,e8f4de86
kɔ̀lɔn,e8f4de86
kɔlɔsi,077f9f64
kɔmi,94096374
kɔ́mi,94096374
kɔn,11974f0d
kɔ̀n,11974f0d
kɔngɔ,1a748bdc
kɔ́ngɔ,1a748bdc
kɔni,e8358400
kɔ̀ni,e8358400
kɔnɔ,259750bf
kɔ́nɔ,259750bf
kɔ̀nɔ,726a4718
kɔnɔboli,22f91929
kɔnɔma,9f2eb4c3
kɔ́nɔma,9f2eb4c3
kɔnɔnafin,79e00542
kɔnɔnako,b6225dcd
kɔ́nɔnako,b6225dcd
kɔnɔnin,f605565d
kɔ̀nɔnin,f605565d
kɔnɔntɔ,0bdb56db
kɔ̀nɔntɔ,0bdb56db
kɔnyɔ,aa963c75
kɔɲɛna -,74575dd9
kɔɲinan,74575dd9
kɔ́ɲɔ,aa963c75
kɔɔ,3cebed16
kɔrɔ,5609ed61
kɔ́rɔ,5609ed61
kɔ̀rɔ,c85be45c
kɔrɔbɔ,1651dc29
kɔ̀rɔbɔ,1651dc29
kɔrɔcɛ,ebf309dc
kɔrɔfɔ,1a53479c
kɔ́rɔfɔ,1a53479c
kɔrɔlabla,c1c57589
kɔ́rɔlabla,c1c57589
kɔrɔmatigɛ,da36fec6
kɔ̀rɔmatigɛ,da36fec6
kɔrɔmuso,39067f7e
kɔ̀rɔmuso,39067f7e
kɔrɔn,a1e21cc4
kɔ́rɔn,a1e21cc4
kɔrɔni,a3ec44a0
kɔ́rɔni,a3ec44a0
kɔrɔsi,077f9f64
kɔ̀rɔsi,077f9f64
kɔrɔsiri,44c0048a
kɔ̀rɔsiri,44c0048a
kɔrɔta,e5d56359
kɔ̀rɔta,e5d56359
kɔrɔtigɛ,5d964c68
kɔ́rɔtigɛ,5d964c68
kɔrɔtɔ,74d8b25e
kɔ̀rɔtɔ,74d8b25e
kɔsegi,66e45d03
kɔ́segi,66e45d03
kpɛ,e822fbe2
kpɛ́,e822fbe2
ku,572169a1
kú,0187ed43
kule,86925165
kúle,86925165
kulu,1730947e
kúlu,1730947e
kulukulu,8cada1df
kúlukulu,8cada1df
kulusi,c82bf677
kùlusi,c82bf677
kuma,21cf6fb6
kúma,21cf6fb6
kumu,42efc667
kùmu,42efc667
kun,419966e5
kùn,419966e5
kuna,5fc78c67
kúna,5fc78c67
kunasini,bd045fa7
kúnasini,bd045fa7
kunbiri,ac100329
kúnbiri,ac100329
kunko,0b00f8f8
kùnko,0b00f8f8
kunkolo,1337f010
kùnkolo,1337f010
kunna,2681ec8c
kunnan,2681ec8c
kùnnan,2681ec8c
kunnyɔgɔn,dbd075fc
kùnɲɔgɔn,dbd075fc
kunsigi,fcb585c4
kunu,ff7aca61
kúnu,ff7aca61
kunun,d691434a
kúnun,d691434a
kùnun,08e286e2
kura,ada94ff2
kúra,ada94ff2
kuraya,578a6c8c
kuru,5c375cc7
kurukun,b8c66a70
kùrukun,b8c66a70
kurukuru,e91915fa
kùrukuru,e91915fa
kurun,55c031f4
kúrun,55c031f4
kururu,da83e1ba
kúruru,da83e1ba
kusubara,59ba2d9d
la,2df591e5
lá,2df591e5
láabi,45ae3f2e
laada,7ff1dd1c
láada,7ff1dd1c
laadi,ee259cb5
láadi,ee259cb5
laaminɛ,181703b8
làaminɛ,181703b8
laban,30701c14
lában,30701c14
labɛn,e5eb8f01
lábɛn,e5eb8f01
labi,45ae3f2e
lábi,45ae3f2e
labɔ,7860e264
lábɔ,7860e264
ladamu,afe6f3e1
làdamu,afe6f3e1
ladɛnɛ,b6b1710e
ladi,ee259cb5
ladia,6a254ac1
ládia,6a254ac1
ladinɛ,b6b1710e
làdinɛ,b6b1710e
lafen,95c302f3
láfen,95c302f3
lafili,bf644083
láfili,bf644083
lafiri,bf644083
lafiya,b43a0002
láfiya,b43a0002
láfiyɛn,b43a0002
láfɔnyɔ,b43a0002
lagafiya,b43a0002
lagbɛ,b375efca
lagbɛrɛya,9e0eb26d
lágbɛrɛya,9e0eb26d
lajɛ,b375efca
lájɛ,b375efca
làjɛ,714e5153
lajɛn,714e5153
lajigi,f5e350e6
làjigi,f5e350e6
lakale,4a546ef6
lákale,4a546ef6
lakali,4a546ef6
lakolon,7c223117
lákolon,7c223117
lakɔliden,51652068
lakɔlifa,872c7bff
lakɔliso,6d5f94a5
lakunu,1ee0da6e
lákunu,1ee0da6e
lalaga,5c442ea0
lálaga,5c442ea0
lalɔ,9cd5c9df
lálɔ,9cd5c9df
lamaga,6adb2a35
lámaga,6adb2a35
lamɛn,d198ead7
lámɛn,d198ead7
lamina,121bf6a9
lámina,121bf6a9
landa,719840c2
lànda,719840c2
lanɛgɛ,c3945485
lánɛgɛ,c3945485
lankari,d0fff978
lanyini,86f1b4e0
làɲini,86f1b4e0
lase,5a32f3dc
láse,5a32f3dc
lasigi,2867c8ac
lásigi,2867c8ac
lasigiden,4f277724
lásigiden,4f277724
lasiritɔ,c884139f
lásiritɔ,c884139f
lasu,ddad274b
lásu,ddad274b
lataga,d542afe4
látaga,d542afe4
latien,01ed89f1
látien,01ed89f1
latiɲɛ,01ed89f1
layɛlɛn,4e5d840b
láyɛlɛn,4e5d840b
layi,39c790e8
layidu,88d131ed
layiru,88d131ed
láyiru,88d131ed
le,2f3657e2
lè,2f3657e2
lemuru,4b45460f
lewulewu,6f09e279
lèwulewu,6f09e279
lɛ,184c41b5
lɛ̀,184c41b5
lɛkɛ,955bb263
lɛri,6f4114e5
lɛ́ri,6f4114e5
li,df7b8ce1
lí,df7b8ce1
lì,2e1416d5
liden,c7b98f3e
limɔgɔ,8a1f8d6b
límɔgɔ,8a1f8d6b
lo,33925103
lo ?,2f3657e2
ló,33925103
lò,274bdc97
loko,13eaf831
lóko,13eaf831
lolo,9802abe9
lomuru,4b45460f
lòmuru,4b45460f
lon,27476788
lón,27476788
lonan,8e3c1e62
lónan,8e3c1e62
lonkan,1fef1e3c
lónkan,1fef1e3c
loon,27476788
looru,faf69c06
lóoru,faf69c06
lɔ,df1f01d6
lɔ̀,df1f01d6
lɔgɔ,66982fec
lɔ́gɔ,66982fec
lɔgɔfɛ,cefc7445
lɔgɔfiyɛ,cefc7445
lɔgɔkun,05e36a5d
lɔ́gɔkun,05e36a5d
lɔgɔyɛ,cefc7445
lɔn,6c038de5
lɔ́n,6c038de5
lɔnan,e9329018
lɔ̀nan,e9329018
lɔnko,ba502508
lɔ́nko,ba502508
lu,234119b1
lú,234119b1
ma,e325d810
má,e325d810
mà,8f2ea501
madon,372f57ef
màdon,372f57ef
mafiɲɛya,3a553ceb
mafiyɛnya,3a553ceb
máfiyɛɲa,3a553ceb
maga,b22d3783
màga,b22d3783
magban,c2c6f9c3
màgban,c2c6f9c3
magbɛn,1b831369
mágbɛn,1b831369
majigi,f5e350e6
màjigi,272bee0f
mako,b811c88f
màko,b811c88f
makun,0fc3609d
màkun,0fc3609d
malasa,1b23d17c
málasa,1b23d17c
malo,dd2eadc3
màlo,dd2eadc3
malɔ,ebde75ca
málɔ,ebde75ca
mamacɛ,b63b749d
màmacɛ,b63b749d
mamamuso,cd678834
màmamuso,cd678834
mamina,2e696ea2
mámina,2e696ea2
man,88cb77be
mán,88cb77be
mana,87728a77
mána,87728a77
manamana,a2220fc7
mánamana,a2220fc7
manan,1ccfb24b
mangalanin,613fe04c
màngalanin,613fe04c
mangoro,94405bf0
mángoro,94405bf0
mankan,f460b31e
mànkan,f460b31e
mansa,975aa630
mànsa,975aa630
mantɔɔrɔ,f8f7e36b
màntɔɔrɔ,f8f7e36b
mara,2e449868
mará,2e449868
màra,b0847796
marfa,c07847fb
marifa,c07847fb
màrifa,c07847fb
marisikalo,39d01814
maro,776ef7fb
masa,975aa630
masacɛ,ed5f8399
màsacɛ,ed5f8399
masala,03a49a08
màsala,03a49a08
masiri,b2b0642d
màsiri,b2b0642d
masɔrɔ,59007558
màsɔrɔ,59007558
masuma,9975307a
màsuma,9975307a
matigi,fcde7462
mátigi,fcde7462
meeri,b80873cc
meleke,c10504f8
méleke,c10504f8
mɛ,c7b51297
mɛɛn,a2e7de2a
mɛ́ɛn,a2e7de2a
mɛkalo,5c136389
mɛn,d09558b8
mɛ́n,d09558b8
mɛnbaga,bfc2e7f0
mɛ́nbaga,bfc2e7f0
mɛnɛmɛnɛ,5dea8e86
mɛ̀nɛmɛnɛ,5dea8e86
miiri,575cbd7a
míiri,575cbd7a
miirinako,2ed05474
míirinako,2ed05474
min,15736e9c
mín,15736e9c
mìn,460c044d
mina,6858a908
mìna,6858a908
minako,3881f6e4
mìnako,3881f6e4
minan,9fcb90b1
mìnan,9fcb90b1
minɛ,6858a908
míni,ad2dd014
miniɲan,ed812873
minkɛ,8390ab82
mínkɛ,8390ab82
minnɔgɔ,bf11a4d6
mìnnɔgɔ,bf11a4d6
misɛli,d9ee4269
mísɛli,d9ee4269
misi,6d7c9a77
mìsi,6d7c9a77
misiri,25334356
mìsiri,25334356
miyɛ́n,a2e7de2a
mobilbɔrila,ede083b0
mobili,8c2024a2
móbili,8c2024a2
monimoni,cece1617
mònimoni,cece1617
mori,3e6ae3e3
móri,3e6ae3e3
moyi,51d76196
mòyi,51d76196
mɔ,1b8877c6
mɔ̀,1b8877c6
mɔgɔ,19e9246d
mɔ̀gɔ,19e9246d
mɔgɔsɛbɛ,77c03933
mɔ̀gɔsɛbɛ,77c03933
mɔn,1b8877c6
mɔ́n,c76fc93e
mɔ̀n,e4211863
mɔnɛ,0dfed9cd
mɔ́nɛ,0dfed9cd
mɔ̀nɛ,03c8ee46
mɔnyɔn,7ea6f31e
mɔnyɔngɔ,32b3a44b
mɔnyɔnmɔnyɔn,c7ec28f0
mɔ̀ɲɔn,7ea6f31e
mɔ̀ɲɔngɔ,32b3a44b
mɔ̀ɲɔnmɔɲɔn,c7ec28f0
mugan,2e07754e
múgan,2e07754e
mùgan,c4a72a85
mugu,fdd29ffa
múgu,fdd29ffa
mun,349c94a7
mùn,349c94a7
mùnna,5d957b7b
munu,ad2dd014
múnu,ad2dd014
munumɛmɛ,1b8d1ec2
múnumɛmɛ,1b8d1ec2
munyu,ef444285
muɲu,ef444285
mùɲu,ef444285
mura,d4e0ed2e
múra,d4e0ed2e
muru,f5ba919a
mùru,f5ba919a
muso,67b6999f
mùso,67b6999f
musɔrɔ,3fe47843
músɔrɔ,3fe47843
n,1eacb022
na,bf2d23cd
ná,bf2d23cd
nà,2f349a43
naani,7b6a6521
náani,7b6a6521
nafa,8e422666
nàfa,8e422666
nafolotigi,b9acce26
nàfolotigi,b9acce26
nàfɔlo,97a97fbd
nafɔlɔ,97a97fbd
nakan,23db0186
nàkan,23db0186
náloman,f3b0f385
nan,bf2d23cd
nanfenw,26697cb3
nánfenw,26697cb3
nanfɔlɔ,97a97fbd
naroman,f3b0f385
nároman,f3b0f385
nba,53f34bba
nbá,53f34bba
ne,7e0c3261
nege,591840e8
nège,591840e8
nɛgɛ,587f8870
nɛ̀gɛ,587f8870
nɛgɛn,cfc703cc
nɛ̀gɛn,cfc703cc
nɛgɛnɛgɛ,b2f9a8c1
nɛ́gɛnɛgɛ,b2f9a8c1
nɛgɛso,a61befe3
nɛ̀gɛso,a61befe3
nɛman,249c8b43
nɛn,57ed02ee
nɛ̀n,57ed02ee
nɛnɛ,5957f784
nɛ́nɛ,5957f784
nɛ̀nɛ,e82e5be3
nɛnɛkiri,a4af0ef2
nɛni,8160cf98
nɛ̀ni,8160cf98
nɛnin,8160cf98
nɛrɛmugu,9c71ea2f
nɛrɛmugulaman,9c71ea2f
nɛ̀rɛmugulaman,9c71ea2f
nga,dc106bb7
nganiya,e1a499b5
ngàniya,e1a499b5
ngɔli,a9721385
ngɔ̀li,a9721385
ngɔnɔ,4571ca4f
ngɔ̀nɔ,4571ca4f
ngɔyɔ,4b8bd2b7
ngɔ̀yɔ,4b8bd2b7
ngunuma,b04b72bc
ngùnuma,b04b72bc
ni,bd8c4982
ní,e924e36a
nii,7c68362f
níi,7c68362f
nìi,af99e62a
nima,0b09a479
niman,0b09a479
níman,0b09a479
nimisa,3c158f9b
nìmisa,3c158f9b
nimisi,3c158f9b
nin,24889e2a
nín,24889e2a
ninakiri,a4af0ef2
nìnakiri,a4af0ef2
ninugu,00333220
nisɔ,f714f462
nísɔ,f714f462
nisɔdiya,b91d2b36
nìsɔdiya,b91d2b36
nisɔndiya,eb9932f5
niyɔrɔ,e31f070c
níyɔrɔ,e31f070c
nka,dc106bb7
nkà,dc106bb7
nkɔnki,46164cdb
nkɔ̀nki,46164cdb
nogo,6f44f29c
nògo,6f44f29c
novanburukalo,d3765b3f
nɔ,a1700d64
nɔ̀,a1700d64
nɔgɔ,0b92749a
nɔ́gɔ,0b92749a
nɔ̀gɔ,3348c4e8
nɔgɔya,013346f8
nɔ̀gɔya,013346f8
nɔnkɔn,0244956e
nɔ̀nkɔn,0244956e
nɔnɔ,10ed33b2
nɔ́nɔ,10ed33b2
nɔyɔ,4b8bd2b7
nse,f3919589
nsè,f3919589
ntalen,d4e5108c
ntàlen,d4e5108c
ntan,89e8bc9d
ntán,89e8bc9d
ntɛnɛn,45447370
nu,32c10c11
nugu,c0117056
nùgu,6f44f29c
nuguya,b1808019
nùguya,b1808019
numan,e401259c
núman,e401259c
numu,4c8a35ae
nùmu,4c8a35ae
nun,32c10c11
nún,32c10c11
nunu -,00333220
nya,a8909c9e
nyabɔ,d02258ea
nyaci,865491dd
nyada,8432199b
nyafɔ,935e65ab
nyagami,df5dfa0a
nyagban,f46d9723
nyàgi,0e6e88eb
nyaji,e34a7e68
nyàki,0e6e88eb
nyakisɛ,7bb8459b
nyamaku,759f95c5
nyamaɲama,89ef7b99
nyana,a15a5342
nyanabɔ,76834f44
nyanafin,414be078
nyanagbɛ,d390379b
nyanaman,7a8ef74b
nyanamani,ad6fe589
nyanayeli,369cb38b
nyangunu,a99ab0aa
nyɛ,a8909c9e
nyɛgɛn,a9c8f648
nyɛ́kɛnɛ,f7789ee6
nyɛki,0e6e88eb
nyɛna,a15a5342
nyi,a8d5ba14
nyimi,a2056842
nyin,97ba643f
nyinan,ac4e7a23
nyini,8a61ee96
nyininka,9588733a
nyintin,a0350ef0
nyɔ,0c26361e
nyɔgɔmɛ,58fbd7f0
nyɔgɔn,f18e01cc
nyɔmi,e9aa80f9
nyuman,cca469e2
nyun,dec9f1c3
ɲa,65f461dc
ɲá,a8909c9e
ɲà,d36c6030
ɲabɔ,d02258ea
ɲàbɔ,d02258ea
ɲace,865491dd
ɲàce,865491dd
ɲaci,865491dd
ɲáda,8432199b
ɲaden,7bb8459b
ɲáfɔ,935e65ab
ɲágami,df5dfa0a
ɲágban,f46d9723
ɲáji,e34a7e68
ɲàki,0e6e88eb
ɲákili,7bb8459b
ɲakiseden,0d14ff5c
ɲákisɛ,7bb8459b
ɲamakalaw,06e58232
ɲamaku,759f95c5
ɲámaku,759f95c5
ɲamaɲama,89ef7b99
ɲàmaɲama,89ef7b99
ɲamɔgɔ,b1afe98a
ɲanabɔ,76834f44
ɲánabɔ,76834f44
ɲanafin,414be078
ɲànafin,414be078
ɲanagbɛ,d390379b
ɲánagbɛ,d390379b
ɲanaman,7a8ef74b
ɲánaman,7a8ef74b
ɲanamani,ad6fe589
ɲánamani,ad6fe589
ɲanayeli,369cb38b
ɲánayeli,369cb38b
ɲangoya,a74ba2c6
ɲangunu,a99ab0aa
ɲángunu,a99ab0aa
ɲɛ,a8909c9e
ɲɛgɛn,a9c8f648
ɲɛ́gɛn,a9c8f648
ɲɛgɛnɛ,f7789ee6
ɲɛ́gɛnɛ,f7789ee6
ɲɛgɛɲɛgɛlen,8b6839d4
ɲɛmbɛrɛ,ae524a7c
ɲi,a8d5ba14
ɲimi,a2056842
ɲín,97ba643f
ɲinan,ac4e7a23
ɲínan,ac4e7a23
ɲìnan,13ba84c5
ɲinɛ,a15a5342
ɲìnɛ,a15a5342
ɲini,8a61ee96
ɲíni,8a61ee96
ɲininga,9588733a
ɲìninga,9588733a
ɲininka,9588733a
ɲintin,a0350ef0
ɲìntin,a0350ef0
ɲɔ,0c26361e
ɲɔ̀,0c26361e
ɲɔgɔmɛ,58fbd7f0
ɲɔ̀gɔmɛ,58fbd7f0
ɲɔgɔn,f18e01cc
ɲɔ́gɔn,f18e01cc
ɲɔ̀gɔn,ce05aab9
ɲɔ́mi,e9aa80f9
ɲuman,cca469e2
ɲún,dec9f1c3
ŋani,6ac600f3
ŋaniya,e1a499b5
ŋanyi,d7006fcc
ŋɔni,6ac600f3
o,408d7d33
ò,408d7d33
olu,af51b080
olugu,af51b080
òlugu,af51b080
ɔkutɔburukalo,2509b602
ɔnhɔn,f2e4e5e0
ɔ̀nhɔ́n,f2e4e5e0
ɔnɔn,7bd9d06a
ɔ́nɔ́n,7bd9d06a
pan,cdf84409
pán,cdf84409
pasipasi,5cdfa3b6
pásipasi,5cdfa3b6
pewu,916c225d
péwu,916c225d
pine,480f5789
sa,f2de9f61
sà,f2de9f61
saa,ab67ed2d
saan,857f694a
sàan,857f694a
sàba,09b329a2
sababu,8de608d3
sábabu,8de608d3
sabali,165aa908
sabari,165aa908
sábari,165aa908
sabati,b5bca7c4
sábati,b5bca7c4
sabu,936051e9
sábu,936051e9
sabula,936051e9
safuna,4d89e73b
safunɛ,4d89e73b
sàfunɛ,4d89e73b
saga,2e8ff01d
sàga,2e8ff01d
saheli,4a195196
sáheli,4a195196
sako,d83575b9
sàko,d83575b9
salamaleku,cea8cf72
sàlamaleku,cea8cf72
salibagatɔ,c7fd68df
sàlibagatɔ,c7fd68df
saliya,9abdd828
sàliya,9abdd828
salon,29e63c48
sálon,29e63c48
sama,ca5d6818
sàma,ca5d6818
samara,5e033804
saminya,296e6afd
sàmiɲa,296e6afd
san,857f694a
sán,319bb9ee
sàn,04ae7d55
sanfɛ,ea5028b5
sánfɛ,ea5028b5
sanga,44e5ab46
sánga,44e5ab46
sànga,cc71c38d
sangaso,c59e46c6
sángaso,c59e46c6
sani,d8e4ff65
sáni,d8e4ff65
sanikɛla,bc64f4af
saniman,d8e4ff65
saniya,231fa499
sàniya,231fa499
sanji,6a832325
sánji,6a832325
sankanso,c59e46c6
sanmuru,81e3f2db
sannakurun,17a489e3
sánnakurun,17a489e3
sanni,1caaf362
sansara,7393300e
sánsara,7393300e
sanu,cb8fdbe0
sánu,cb8fdbe0
sanyɔ,c387a959
sàɲɔ,c387a959
sara,033dbe42
sára,033dbe42
sàra,9170226b
sarala,c29eab7a
sárala,c29eab7a
sariya,24a902c6
sàriya,24a902c6
sariyatigi,b604348c
sawa,ce3c63d0
sawula,54cfbd09
sáwula,54cfbd09
saya,ca04e4a4
sàya,ca04e4a4
se,1c2042d2
sé,1c2042d2
seegi,75b99444
séegi,75b99444
segi,7e8efbf2
sègi,7e8efbf2
sègin,33c2e83f
seko,8e289115
séko,8e289115
sekɔ,b08c57a9
selandri,2956c3cc
seli,d1ba4325
séli,d1ba4325
sen,9fa7be86
sèn,9fa7be86
senna,b7142e32
sénna,b7142e32
sennataama,f42454b6
sènnataama,f42454b6
seri,f4f3bbcb
séri,f4f3bbcb
sèri,15b0653b
seriji,c2794aa3
sériji,c2794aa3
seriseri,31599170
sériseri,31599170
sewa,ce3c63d0
séwu,64467f89
sɛbɛ,2ffc6a33
sɛ́bɛ,2ffc6a33
sɛbɛden,579048f4
sɛbɛrikɛlan,7a2aae19
sɛgɛ,2eea85f6
sɛ̀gɛ,2eea85f6
sɛmɛ,ba36c214
sɛ̀mɛ,ba36c214
sɛmɛn,c2c1a13a
sɛnɛ,9591fa08
sɛ̀nɛ,9591fa08
sɛtanburukalo,86dc6e05
si,f9e1ec26
sí,f9e1ec26
sì,91781774
sibiri,7b849366
síbiri,7b849366
sibon,f518e163
siga,0be62c63
síga,0be62c63
sìga,e6c09874
sigi,4f6a03da
sìgi,4f6a03da
sìgiyɔrɔman,65cd70b0
sigiyɔrɔmanni,65cd70b0
sii,11907340
síi,11907340
sìi,e8efa4ae
siko,66a63897
silama,1270d459
silamɛ,1270d459
sin,9dfcc3ea
sín,9dfcc3ea
sìn,c9b9b99b
sinamuso,1534fe9b
sìnamuso,1534fe9b
sinaya,2d3847dd
sìnaya,2d3847dd
singa,68f421e3
sìnga,68f421e3
sini,bec93f86
síni,bec93f86
sinikɛnɛ,f0ae85e8
sínikɛnɛ,f0ae85e8
sinɔgɔ,54528d46
sinyɛ,fe13ab2f
sìɲɛ,fe13ab2f
sira,86f3d36c
síra,86f3d36c
siran,34572e22
síran,34572e22
siri,df015c65
síri,df015c65
sìri,326199f3
sisan,2e7ad7e9
sìsansisan,dd944be9
sisɛ,da5a3226
sìsɛ,da5a3226
sisi,619c191f
sìsi,619c191f
sitigi,859dfd3b
sítigi,859dfd3b
situmu,61ddf090
siya,c8227e88
so,3ca36c82
só,3ca36c82
sò,066db18b
sogi,bde5c3f4
sogo,98bcf429
sògo,98bcf429
son,8688d9b2
sòn,8688d9b2
sonsanin,85fd21b3
sonsoro,682e5388
sònsoro,682e5388
sonya,a477ab54
sonzani,85fd21b3
sònzanin,85fd21b3
sòɲa,a477ab54
soo,3ca36c82
soso,bc4e44f2
sòso,bc4e44f2
sɔbɛ,7b1d9388
sɔgɔ,babf158c
sɔ̀gɔ,babf158c
sɔgɔma,4c0527b5
sɔ̀gɔma,4c0527b5
sɔgɔsɔgɔ,c8b09628
sɔmi,59ea126e
sɔ̀mi,59ea126e
sɔn,4b0bc888
sɔ̀n,4b0bc888
sɔngɔ,580b6309
sɔ̀ngɔ,580b6309
sɔnin,a6095d3a
sɔ̀nin,a6095d3a
sɔrɔ,3ed270ad
sɔ̀rɔ,3ed270ad
sɔrɔlon,f16beded
sɔ̀rɔlon,f16beded
sɔsɔ,5d7322a1
sɔ́sɔ,5d7322a1
sɔ̀sɔ,119d6a86
sɔyisɔyi,8e0650db
sɔ́yisɔyi,8e0650db
su,c8e9154c
sú,c8e9154c
sù,0916e9c9
subaga,586ecb8e
súbaga,586ecb8e
sugo,66a63897
sugu,ab6ee57f
suguni,70065ae1
sukaro,a8a9fdd5
sukarobana,b24666ed
sula,42e76427
sùla,42e76427
sulafana,e07cf8b7
súlafana,e07cf8b7
sulama,1270d459
sùlama,1270d459
suma,9e544623
súma,306e2a7b
sùma,0bcbe3dc
sumaya,a0279568
sumuni -,70065ae1
sumusumu,d20f6bc6
súmusumu,d20f6bc6
sun,aada95fb
sún,aada95fb
sunan,7a46a234
súnan,7a46a234
sunguru,4a36adc8
súnguru,4a36adc8
sunkalo,635939c4
sunɔgɔ,54528d46
sùnɔgɔ,54528d46
sùnya,a477ab54
surugu,23f159aa
súrugu,23f159aa
surun,d2079625
sùrun,d2079625
susu,076bef35
sùsu,076bef35
sutura,390716ae
sùtura,390716ae
suuri,4ca59a99
suya,b07ca2c6
súya,b07ca2c6
syá,9111b78c
syáman,465f03d9
ta,2a9902e0
tá,2a9902e0
tà,00fb4084
taama,b8dd958b
tabali,cec0ba45
tábali,cec0ba45
tafiyɛ,b356a127
táfiyɛ,b356a127
taga,822d0e37
tága,822d0e37
tagafe,852eab2e
tàgafe,852eab2e
tagama,b8dd958b
tágama,b8dd958b
talen,d4e5108c
tama,d8b5f6a2
táma,d8b5f6a2
tamaki,2702b8c7
tàmaki,2702b8c7
taman,b46b6ab4
tàman,b46b6ab4
tan,81126da0
tán,81126da0
tana,e4db8ae1
tàna,e4db8ae1
tando,8c8dccde
tàndo,8c8dccde
tanga,ae8a33c0
tànga,ae8a33c0
tano,8c8dccde
tara,6de8302c
tára,6de8302c
tarabu,d7529605
tàrabu,d7529605
tárata,196a8f84
tasa,4060bdcf
tása,4060bdcf
tasuma,55db59dd
tásuma,55db59dd
tatugu,d03c6f04
tátugu,d03c6f04
teli,f636acd1
téli,f636acd1
teliya,f636acd1
ten,06a019ed
tén,06a019ed
tèn,815aa4d8
tere,10b70e60
tère,10b70e60
terèben,70bfdc77
terela,9dc701c1
teri,ad33fe80
téri,ad33fe80
tɛ,21beac8d
tɛ́,21beac8d
tɛgɛ,56f92e69
tɛ́gɛ,56f92e69
tɛgɛrɛ,6184a5bd
tɛ́gɛrɛ,6184a5bd
tɛmɛ,707920cd
tɛ̀mɛ,707920cd
tɛna,f7571c7c
tɛnɛn,45447370
tɛ̀nɛn,45447370
tɛntɛn,44e0dd9e
tɛ́ntɛn,44e0dd9e
tɛrɛmɛn,c7d75cc9
tɛrɛndɛ,53cf9559
tɛ́̀rɛndɛ,53cf9559
tɛrɛti,9d4824ad
tiga,0ba77906
tìga,0ba77906
tigɛ,e66e65b5
tìgɛ,e66e65b5
tigi,a4ec4b56
tìgi,a4ec4b56
tila,8410f68d
tilan,8410f68d
tilán,8410f68d
tile,10b70e60
tileben,70bfdc77
tilen,ab454a4c
tilén,ab454a4c
tilèn,9a1481e4
timi,707920cd
tiɲɛn,e88bcfe7
tiriko,3da0893a
tiso,c3620c70
tlanyɔrɔman,fdd2edfa
tlanyɔrɔmanni,fdd2edfa
tlányɔrɔmanni,fdd2edfa
tle,10b70e60
to,b7aa9e70
tó,b7aa9e70
tò,0ce23324
tobi,9ad5ce29
tóbi,9ad5ce29
toli,de98f6e1
tòli,de98f6e1
tolo,2de1f85e
tolon,3a7fed2d
tomi,7c14f059
tómi,7c14f059
tonso,eafba3ef
tora,ff6ff4e5
tóra,ff6ff4e5
tori,91479302
tóro,2de1f85e
toron,3a7fed2d
tóron,3a7fed2d
toto,15666cd9
tòto,15666cd9
tɔ,0523305f
tɔ̀,0523305f
tɔgɔ,6917bada
tɔ́gɔ,6917bada
tɔmitɔmilen,5432f565
tɔmɔtɔmɔ,5db3f963
tɔ̀mɔtɔmɔ,5db3f963
tɔn,d8478901
tɔ̀n,d8478901
tɔnkɔnɔ,fc6c2682
tɔnɔ,b4e3f682
tɔ̀nɔ,b4e3f682
tɔnyɔgɔn,d652ccc5
tɔ̀ɲɔgɔn,d652ccc5
tɔɔn,bda1cae7
tɔɔrɔ,f5fe164b
tɔ́ɔrɔ,f5fe164b
tu,5636e202
tú,5636e202
tubabu,ae760034
tùbabu,ae760034
tugu,9de3f86b
túgu,9de3f86b
tulu,1509760a
tuma,ac4ebb75
tùma,ac4ebb75
tumu,5a7b512b
tun,5fbfabac
tùn,5fbfabac
tunu,2c2740e7
túnu,2c2740e7
tunya,744b277f
tunyan,744b277f
tura,ff6ff4e5
turu,1509760a
túru,1509760a
turukala,b8e47b3e
tùrukala,b8e47b3e
ù,408d7d33
utikalo,66b82081
voca,aa4fb882
vɔvɔni,0bb6e99d
wa,6c7c390c
wà,6c7c390c
waa,a4f12a12
wáa,a4f12a12
waati,109628fa
waga,c5531c5f
wága,c5531c5f
wàga,fb1701d4
waganden,2cdbd4e0
wáganden,2cdbd4e0
wagati,109628fa
wagáti,109628fa
wajibi,a2d5ea95
wájibi,a2d5ea95
waju,fa7d1248
wáju,fa7d1248
wala,fbae50cf
wála,fbae50cf
walasa,0316b115
wálasa,0316b115
walawala,a68f0b36
walaya,d708749c
wálaya,d708749c
walayi,b45cc9b0
wálayi,b45cc9b0
walima,6c2681bf
wàlima,6c2681bf
walisa,0316b115
wara,62c244ac
wára,62c244ac
waraninkalan,91389426
warawulen,f193bbf3
wari,e7a71687
wári,e7a71687
warimara,cbf94b53
wárimara,cbf94b53
wasa,5b7cf68b
wàsa,5b7cf68b
watiri,208302a2
wátiri,208302a2
weele,f958a575
wele,f958a575
wɛrɛ,b01dcfca
wɛ̀rɛ,b01dcfca
wili,9b775411
wíli,9b775411
wo,78a9216e
wò,78a9216e
wolo,6223839d
wólo,6223839d
woloma,87888696
wolonfla,dc6b7b61
wólonfla,dc6b7b61
woɔrɔ,3af3e735
wòɔrɔ,3af3e735
woro,ef5a682d
wòro,ef5a682d
woroma,87888696
wóroma,87888696
woso,739a9ef1
wóso,739a9ef1
woto,a0c12448
wóto,a0c12448
wotoro,d1d6e830
wòtoro,d1d6e830
wɔɔsi,45e8a56f
wɔrɔdugu,36ed7645
wɔsi,45e8a56f
wɔ̀si,45e8a56f
wula,83e446a4
wúla,83e446a4
wulen,a01dca7b
wùlen,a01dca7b
wuli,9b775411
wulu,d9b98f85
wùlu,d9b98f85
wusu,cc9b1b0c
wúsu,cc9b1b0c
wuya,e0d1ef14
wúya,e0d1ef14
ya,2a9902e0
yaada,a1ef8729
yáada,a1ef8729
yaafa,7381ea1b
yaala,6a012065
yáala,6a012065
yafa,7381ea1b
yan,b9575646
yàn,b9575646
yanni,1caaf362
yànni,1caaf362
ye,adae25cf
yé,adae25cf
yeele,cca8c0c0
yèele,cca8c0c0
yelen,171dc312
yélen,171dc312
yen,7075f9b0
yèn,7075f9b0
yɛlɛ,99b943e9
yɛ́lɛ,99b943e9
yɛ̀lɛ,7c775b26
yɛlɛko,82128f62
yɛ́lɛko,82128f62
yɛlɛma,f2021d3b
yɛ̀lɛma,f2021d3b
yɛlɛn,7c775b26
yɛrɛ,7d5aeb4f
yɛ̀rɛ,7d5aeb4f
yɛrɛyɛrɛ,8f4f9224
yɛ́rɛyɛrɛ,8f4f9224
yi,7075f9b0
yira,933c3a78
yìra,933c3a78
yiran,7b95abce
yíran,7b95abce
yíri,8472727e
yɔrɔ,993e663e
yɔ́rɔ,993e663e
yuguyugu,901c1a47
yúguyugu,901c1a47
zaban,0fecefb3
zagamɛn,5707c4e3
zanwiyekalo,07f349a3
zɔnzɔn,08247534
zuɛnkalo,0de9e75a
zuwekalo,ab2cbfd0
